<?xml version="1.0" encoding="utf-8"?>
<!-- Generator: Adobe Illustrator 15.0.2, SVG Export Plug-In . SVG Version: 6.00 Build 0)  -->
<!DOCTYPE svg PUBLIC "-//W3C//DTD SVG 1.1//EN" "http://www.w3.org/Graphics/SVG/1.1/DTD/svg11.dtd">
<svg version="1.1" xmlns="http://www.w3.org/2000/svg" xmlns:xlink="http://www.w3.org/1999/xlink" x="0px" y="0px" width="85px"
	 height="87px" viewBox="0 0 85 87" enable-background="new 0 0 85 87" xml:space="preserve">
<g id="Слой_2">
	<circle fill="#ED861D" cx="42.796" cy="43.708" r="40.375"/>
</g>
<g id="Слой_3">
	<g>
		<path fill="#FFFFFF" d="M35.653,26.631v33.202h-8.634V26.631H35.653z"/>
		<path fill="#FFFFFF" d="M58.868,59.833v4.02h-6.521c-1.572,0-2.68-0.121-3.322-0.364s-1.077-0.603-1.302-1.079
			c-0.227-0.478-0.339-1.336-0.339-2.576c-1.955-0.055-3.637-0.567-5.045-1.538S40,56.091,39.549,54.593
			c-0.451-1.496-0.677-3.735-0.677-6.716V37.603c0-2.256,0.133-3.975,0.4-5.158c0.266-1.183,0.816-2.297,1.65-3.343
			s1.907-1.835,3.22-2.369s2.769-0.8,4.368-0.8c1.928,0,3.646,0.328,5.158,0.984c1.51,0.656,2.638,1.49,3.383,2.501
			s1.23,2.061,1.457,3.147c0.225,1.086,0.338,2.703,0.338,4.849v10.784c0,2.952-0.144,4.954-0.431,6.007
			c-0.287,1.052-0.838,1.89-1.651,2.511c-0.813,0.622-1.896,1.098-3.25,1.426c0.041,0.742,0.195,1.21,0.461,1.402
			c0.268,0.193,0.899,0.289,1.897,0.289H58.868z M50.213,35.162c0-1.545-0.086-2.533-0.257-2.963s-0.522-0.646-1.056-0.646
			c-0.451,0-0.797,0.174-1.036,0.523s-0.358,1.377-0.358,3.086v15.504c0,1.928,0.078,3.117,0.235,3.568s0.523,0.677,1.098,0.677
			c0.588,0,0.964-0.26,1.128-0.779s0.246-1.757,0.246-3.712V35.162z"/>
	</g>
</g>
</svg>
