[
	{
			"question_id": "1",
			"text": "how r u?",
			"type": "1",
			"answers":
			[
			{
				"answer_id":"1",
				"text":"good"
			},
			{
				"answer_id":"2",
				"text":"bad"
			}
			]
	},
	{
			"question_id": "2",
			"text": "do you have a girlfriend?",
			"type": "1",
			"answers":
			[
			{
				"answer_id":"1",
				"text":"yes"
			},
			{
				"answer_id":"2",
				"text":"no..."
			}
			]
	},
	{
			"question_id": "3",
			"text": "do you have a car?",
			"type": "1",
			"answers":
			[
			{
				"answer_id":"1",
				"text":"yes"
			},
			{
				"answer_id":"2",
				"text":"i want it..."
			}
			]
	}
]